{
    "name": "Signature",
    "fields": [
        {
            "fieldName": "signatureHash",
            "fieldType": "String"
        },
        {
            "fieldName": "dateBegin",
            "fieldType": "Instant"
        },
        {
            "fieldName": "statusSignature",
            "fieldType": "StatusSignature",
            "fieldValues": "ACTIVE,CANCELED,SUSPENDED,BLOCKED"
        }
    ],
    "relationships": [
        {
            "relationshipType": "one-to-one",
            "relationshipName": "agreement",
            "otherEntityName": "agreement",
            "otherEntityField": "id",
            "ownerSide": true,
            "otherEntityRelationshipName": "signature"
        },
        {
            "relationshipType": "one-to-one",
            "relationshipName": "financialVariables",
            "otherEntityName": "financialVariables",
            "otherEntityField": "id",
            "ownerSide": true,
            "otherEntityRelationshipName": "signature"
        },
        {
            "relationshipType": "many-to-one",
            "relationshipName": "plan",
            "otherEntityName": "plan",
            "otherEntityField": "id"
        },
        {
            "relationshipType": "many-to-many",
            "otherEntityRelationshipName": "",
            "relationshipName": "user",
            "otherEntityName": "user",
            "otherEntityField": "id",
            "ownerSide": true
        }
    ],
    "changelogDate": "20180901001452",
    "entityTableName": "signature",
    "dto": "mapstruct",
    "pagination": "infinite-scroll",
    "service": "serviceImpl",
    "jpaMetamodelFiltering": false,
    "fluentMethods": true,
    "clientRootFolder": "",
    "applications": "*"
}